mapping = {
    "yl2304_2016_12_19": "yl2304_1_1553_7ddf2125170b121a099d591e2588e1fb",
    "xp15_vtvx4awee4w4eewa4z757": "2*xp15_4r4z4r4",
    "xp15_04r4z04r4zzeaeeeeae": "2*xp15_4r4z4r4",
    "xp15_vtvy2eaeeeeaez757": "2*xp15_4r4z4r4",
    "xs10_g8ov52z01": "xs10_g8o652z01",
}
