mapping = {
    "b0123478s01234678" : "AntiLife",
    "b012345678s34678" : "InverseLife",
    "b028s0124" : "Invertamaze",
    "b08s4" : "Neon Blobs",
    "b12678s15678" : "Solid islands grow amongst static",
    "b1357s02468" : "Fredkin!Replicator#Replicator_2",
    "b1357s1357" : "Replicator!Replicator",
    "b1358s0247" : "Feux",
    "b168s236" : "Forest of Ls",
    "b1s012345678" : "H-trees",
    "b1s014567" : "Fuzz",
    "b1s134567" : "Snakeskin",
    "b1s1" : "Gnarl",
    "b234s" : "Serviettes",
    "b25678s5678" : "Iceballs",
    "b2s" : "Seeds!Seeds",
    "b2s0" : "Live Free or Die!Live_Free_or_Die",
    "b34578s456" : "Gems Minor",
    "b3457s4568" : "Gems!Gems",
    "b345s0456" : "Never happy",
    "b345s2" : "Blinkers",
    "b345s4567" : "Assimilation",
    "b345s5" : "LongLife!LongLife",
    "b34s34" : "3-4 Life",
    "b34s35" : "Dance",
    "b34s456" : "Bacteria",
    "b35678s34567" : "Cheerios",
    "b35678s4678" : "Holstein",
    "b35678s5678" : "Diamoeba",
    "b3567s15678" : "Bugs",
    "b3578s24678" : "Geology",
    "b357s1358" : "Amoeba",
    "b357s238" : "Pseudo Life",
    "b35s236" : "Eppstein",
    "b3678s1258" : "2x2 2",
    "b3678s135678" : "Castles",
    "b3678s235678" : "Stains!Stains",
    "b3678s34678" : "Day and Night!Day_and_Night",
    "b367s125678" : "Slow Blob",
    "b367s23" : "DrighLife",
    "b368s128" : "LowFlockDeath",
    "b368s012345678" : "LowDeath without death",
    "b368s236" : "Life SkyHigh",
    "b368s238" : "LowDeath!LowDeath",
    "b368s245" : "Morley!Move",
    "b36s012345678" : "HighLife without Death",
    "b36s125" : "2x2!2x2",
    "b36s128" : "IronFlock",
    "b36s12" : "HighFlock",
    "b36s234578" : "Land Rush",
    "b36s235" : "Virus",
    "b36s238" : "IronLife",
    "b36s23" : "HighLife!HighLife",
    "b36s245" : "Logarithmic replicator rule",
    "b378s235678" : "Coagulations",
    "b37s12345" : "Maze with Mice",
    "b37s1234" : "Mazectric with Mice",
    "b37s12" : "DryFlock",
    "b37s23" : "DryLife!DryLife",
    "b38s012345678" : "Pedestrian Life without Death",
    "b38s12" : "Pedestrian Flock",
    "b38s128" : "HoneyFlock",
    "b38s23" : "Pedestrian Life!Pedestrian_Life",
    "b38s238" : "HoneyLife!HoneyLife",
    "b378s012345678" : "Plow World",
    "b37s012345678" : "DryLife without Death",
    "b3s012345678" : "Life without Death!Life_without_Death",
    "b3s023" : "DotLife!DotLife",
    "b3s0248" : "Star Trek",
    "b3s12" : "Flock!Flock",
    "b3s12345" : "Maze!Maze",
    "b3s1234" : "Mazectric!Maze#Similar_rules",
    "b3s1237" : "SnowLife",
    "b3s124" : "Corrosion of Conformity",
    "b3s128" : "EightFlock",
    "b3s13" : "LowLife",
    "b3s23" : "Conway's Game of Life!Life",
    "b3s238" : "EightLife!EightLife",
    "b3s245678" : "Shoots and Roots",
    "b3s4567" : "Lifeguard 2",
    "b3s45678" : "Coral",
    "b45678s2345" : "Walled Cities",
    "b45678s5678" : "Majority",
    "b45s12345" : "Electrified Maze",
    "b45s1235" : "Oscillators Rule"
    "b4678s35678" : "Vote 4/5",
    "b48s234" : "Lifeguard 1",
    "b5678s45678" : "Vote",
    "b56s14568" : "Rings 'n' Slugs",
    "b012-in3-cky4ar5cjnr6aes05aijnr6n" : "plasma1",
    "b01c2n5as3a5i" : "Worms 0",
    "b1e2ak3einqy4jnry5einqy6ak7es01c2-ak3acjkr4-jnry5acjkr6-ak7c8" : "Fredkin2",
    "b1e2ak3einqy4jnry5einqy6ak7es1e2ak3einqy4jnry5einqy6ak7e" : "Parity",
    "b2-a3-inqr4c6s23" : "Writers",
    "b2-a3-is23-a" : "Linea",
    "b2-a3acei4ceqz5ys234ce5ceky78" : "dolife2",
    "b2-a3ck6-ins013aceky5-ky6a7c8" : "CelestialBodies",
    "b2-a3cs12-i" : "Turro",
    "b2-a3i4aijks2a3-i4" : "StairWorld",
    "b2-a3j4-acekn56s15y" : "Flutter",
    "b2-a3s2ce" : "Notlife / Ace",
    "b2-a5k6n7cs12-i3ij4k5j8" : "Movero VIII",
    "b2-as014" : "sansdomino",
    "b2-as12" : "Just Friends!Just_Friends",
    "b2-ac3acei4ey6n8s02-n3-nqy4cekyz5ei6k7e" : "Flowflakes",
    "b2-ac3acei4ey6n8s02-n3-nqy4cekyz5ei6k" : "Growflakes",
    "b2-ac3aei4ae6i8s23-ejq8" : "Hype",
    "b2-ac3aei4ey5n6n8s02-n3aceir4ceyz5e6k" : "Rainflakes",
    "b2-ae3-cij4a5aj6e7e8s01e2ai3ar4ar5air6ae7c8" : "Blocks for Days",
    "b2-ae3aej4ezs03ac4aikqryz78" : "Fuzey",
    "b2-ak3-jnqr4ceiqtwz5-jnqr6-aks2-ak3-jnqr4ceiqtwz5-jnqr6-ak" : "Symmetristic",
    "b2-ak3-jnqrs15678" : "Quasilinear Collisions",
    "b2-ak3acei4ceqz5ys234ce5ceky78" : "dolife",
    "b2-ak3aen4cenrtw5iq6es02ac3aenqy4ejqtwy5ak6acn7" : "Two-dots rule 2",
    "b2-ak3ais23" : "Zakai",
    "b2-ak3einqy4es1c2ak3inqy4e" : "Ben's rule",
    "b2-ak4568s156ak78" : "SimpleInverseFire",
    "b2-an3-ks2ac" : "IneticLife",
    "b2-an3aiys2-in3cijky4-nqrz5k" : "Patchworks",
    "b2-an3s2ac" : "KineticLife",
    "b2-an4jn7e8s12-k4r" : "Fruitflies",
    "b2-ks2-k" : "22k",
    "b2a3es012-ai3-i45-i678" : "triship",
    "b2a3ik4cs2ce3c" : "Bits and Pieces",
    "b2ace3acei4ace5acei6aces" : "Conquerors and Colonizers",
    "b2ae3rs1e" : "Prismatika Crystallios",
    "b2ae4c678s01e4aeqrtw5678" : "Photics I",
    "b2ae4cw5y6is01e2i4q" : "Photics II",
    "b2ae4is1e2in" : "cb2",
    "b2aes" : "LogicRule",
    "b2aes1e3y5" : "Lace",
    "b2ais03" : "cereal",
    "b2ak5cs2cn3inqy4aikqtwz5inqy" : "Bricks",
    "b2c3-cekq4ikt5i8s2-in3-acky4aijry5eiky6i" : "Wild Seas",
    "b2c3aei4ajnr5acns2-ci3-ck4in5jkq6c7c" : "Rule X3VI",
    "b2c3aeij4krtyz5cij6-ak7s2-ik3-aek4aeiknw5a6ikn7" : "Tubular",
    "b2ce3aijns2ak3-aijn4jkqty5cekr6ce8" : "Trycogene",
    "b2cei3-i4z5-a6-a78s1c2ik3y4q5-a678" : "daggers",
    "b2cei3-ijnr4-a6is12-cn" : "Extension",
    "b2cei3ci4jnr5ikns12aen3c4einqy5er6aei8" : "X-rule-pre",
    "b2cei3ci4jnr5ikns12-ck4einqy5er6aei8" : "pre-X-rule",
    "b2cen3ek4ejkwz5-ein6an7e8s12an3-eijq4enrty5e6k" : "Dominoplex",
    "b2cen3ek4jkw5-aein6a7es12an3-eijq4enrty5e6k" : "Gentle relative",
    "b2ce3-ais01" : "Dustclouds01",
    "b2ce3-ais03" : "Dustclouds03",
    "b2ce3aeikq4aeikw5cs1367" : "abomination",
    "b2ce3aiys12aei3r" : "Best Friends",
    "b2ce3ci4iyz5ce6cs12ce3ae" : "SolarWorld",
    "b2ce3e4jr5cin6-en7c8s012-ac3-cn4-eikny5-kr67c8" : "Banks-III",
    "b2ce3is1c2cek" : "Particles",
    "b2ce3is23" : "Half as Interesting",
    "b2ci3ai4c8s02ae3eijkq4aiz5ar6i7e" : "Snowflakes 2",
    "b2ci3ai4c8s02ae3eijkq4iz5ar6i7e" : "Snowflakes!Snowflakes",
    "b2ci3aikrs1e2-a3i" : "Arcane Circuitry",
    "b2e3-ceny4einqwz5-cikr6ceis1c2e3aijky4aceijrz5-cejk6-ak7c8" : "Stars",
    "b2e3-k4c8s02-e3-q4cqt8" : "Novalux",
    "b2e3-k8s2-e3-cqy4qt8" : "Novalox",
    "b2e3aceij5-ijrs23-a4" : "Movostill 3",
    "b2e3aceijs23-a4" : "Clouds",
    "b2e3aceiks23" : "CarrierLife",
    "b2e3aciy4jnw68s23678" : "Traffic Flow",
    "b2e3aeiy4ce5i6c7es2-n3-a4artz5aeny6cn" : "Savanna",
    "b2e3ai4arw5678s3-an4ar5i678" : "SlugWorld",
    "b2e3ai4ars23-a4a" : "Ylife",
    "b2e3aijr4qs1c23-a5" : "Smorgasbord",
    "b2e3aiknr4qs1c2-in3aijry4a" : "Orthogonable",
    "b2e3airy4kt5jr6c8s02ace3eiknr4-aj5-cei6-a78" : "Blasts",
    "b2e3einy4ak5ijq7cs1c2-ai3-ceky4ejny5ceqr6ak" : "GliderRROLife",
    "b2e3s23-jq" : "Knyght",
    "b2e3s23" : "xvaLifeg",
    "b2ei3-a4ce5y6is234i7e" : "gp",
    "b2ei3-acjn4ceijkr5-ejry6-ck7c8s1c2cen3-iqr4aqwz5-inr6-ae78" : "Red Alert",
    "b2ei3aeij4cjt5ky6eis1c2ace3jkn4aeijktw5ekry6in7e" : "Suns",
    "b2ei3aij4qtws1c2-in3-aq4iz5i6i8" : "Swift",
    "b2ei3ci4aerw5acky6i8s012-an3eiknq4qrty5aeik6ik8" : "Two-dots rule 1",
    "b2ei3cis1c23" : "Sanctuary",
    "b2ei3ij4ajnr6cis12ce3ajn4qtz5ijnqy6c" : "Switches",
    "b2ei3ij4aqw5c8s1c2-ai3-a4ew8" : "Pearl Harbor",
    "b2ei3is1c2-n3jr4an5i6c" : "Atomic",
    "b2ein3cijn4cnrwy5cnq6es1c2-ai3acny4anqy5c6ek8" : "Einstein",
    "b2ein3inrys12-n3ce" : "Migrating Bookends",
    "b2ek3cei4acjr5c8s02ack3kn4aen" : "Goldilocks I",
    "b2en3ij4a5e7e8s1c2cek3-a4aiqw5aky" : "Diamonds",
    "b2i34c6cen7c8s2-i3-q4c5a6e8" : "MaritimeLife",
    "b2i34cj6a7c8s2-i3-a4ceit6in" : "SmokingLife",
    "b2i34cs2-i3" : "Salad",
    "b2i34e6i7cs2-i36n" : "Butterfly",
    "b2i34e6i7s2-i36n" : "butterflyb7",
    "b2i34es023-a4ce" : "tq6",
    "b2i35-ns2-ci36k8" : "Buzz",
    "b2i3acijk6is23-a4" : "Movostill",
    "b2i3ai4cei5c6c7s2-ae3acein4-t5-aq6cei7c8" : "Emitters",
    "b2i3-kq4j5y7s2-i34centw5e" : "Hundredmirrorlife",
    "b2i3-kq4j6ci8s234j" : "Paulife",
    "b2i3s23-r" : "HouseLife",
    "b2ikn34es023-a4ce" : "lotsofdots",
    "b2ikn3-ejnrs01c2cei3ay4c" : "RotoDotPuffers",
    "b2ikn3aijns23-ckqy" : "Creperie",
    "b2in34-as1e2ekn34ent" : "Twinkles",
    "b2in36s123a8" : "IronGoats",
    "b2in38s123a8" : "HoneyGoats",
    "b2in3s123a8" : "EightGoats",
    "b2in36s123a" : "HighGoats",
    "b2in37s123a" : "DryGoats",
    "b2in38s123a" : "Pedestrian Goats",
    "b2in3aeijns234e" : "Whichlife",
    "b2in3aij4acjkwz5aks2-i3-aq4acijqwz6c8" : "Citrus",
    "b2in3s123a" : "Goats!Goat_Flock",
    "b2in3s2-in3" : "olife",
    "b2k3-kns23" : "snotlife",
    "b2k3-ks23-a" : "notlife (Wright)",
    "b2kn3-ekqr4i5eq6n8s23-aeny4cikqr5ek6ace7c" : "Cloudsdale",
    "b2kn3-n4es23" : "FlashLife",
    "b2k34cs2-c34z8" : "Simple Life",
    "b2k3acijr4ijqy6i7cs2aek3ijnqr4it5n" : "Omosso",
    "b2k3aijn4ak5y6ks2ae3ajnr4aiw" : "GliderGlut",
    "b2n34cyz6n8s2-n3-a4cq68" : "B - ibis",
    "b2n3678s3-q4678" : "Leaplized D&N",
    "b2n37s2-i3-q4q" : "tdryleaplife",
    "b2n3-cry4kn6i7cs23-a4i6c" : "Crylife",
    "b2n3-ekqy4c5es2-cn3-eky4aij5e" : "Eatsplosion",
    "b2n3-jns1c23-y" : "MOSLife",
    "b2n3-kqy4jz5ey6-ik78s2-ik3-y4-aknry5cekn678" : "Community",
    "b2n3-q4aqz6n8s2-in3-q4iz7c8" : "Easplosion IV",
    "b2n3-q5y6c78s23-k8" : "tvesseldryhoneylife",
    "b2n3-q5y6c7s23-k" : "DryVesselLife",
    "b2n3-q5y6cs23-k" : "VesselLife",
    "b2n3-qs23" : "LoafLife",
    "b2n3-y5q8s23-ckq4ceint6e8" : "Amalgam",
    "b2n3s23-q" : "LeapLife",
    "b2n3s23-q4e8" : "LispLife",
    "b2n3s23" : "2diagonal",
    "b2n3ai4a78s35678" : "Diamoeral",
    "b2n3aij4ceqrz5js2-i3-a4aci5i6n8" : "Bonsai",
    "b2n3aij4ceqrz5ys2-i3-a4aciz6i8" : "Current",
    "b2n3aij4ceqrzs2-i3-a4aciz6i8" : "Hivula",
    "b2n3aijkrs2-i3-a4ciz6c" : "Qoire",
    "b2n3air4jtwz5a8s23-a4aiqwz6i8" : "Stellate",
    "b345-a6s2-a3-a4-a" : "Nah",
    "b34-airs234-air" : "PlasmaLife",
    "b34-ais24-air5-a" : "RustyLife",
    "b34-i5-a6-as2-an34-akrw" : "PuffLife",
    "b34aeizs2-ak34ant6cek" : "SharkLife",
    "b34c6ns2-n3-ck4cijqtwy5y6n" : "GMO snowflakes",
    "b34c6s23-q" : "GemLife",
    "b34ces12-a3" : "Beaecsizae",
    "b34cets234jkwyz" : "cetlife",
    "b34cijkq5k6i8s2-n3-ik4cjqt5y6cin8" : "RBeeLife",
    "b34ck5s23aceik4aci" : "Farespa",
    "b34ckyzs234cz" : "RotoHooks",
    "b34cqy5cs23-y4y" : "Breps",
    "b34cqys234q" : "SparklingLife",
    "b34cyz5y8s234y5y6n8" : "RotoBlocks",
    "b34cz5ys234y8" : "PortLife",
    "b34cs234y8" : "Pilife2",
    "b34cs23" : "4diagonal",
    "b34e5c6ns23-q" : "TearfulLife",
    "b34e5y6cn8s234c5e" : "Pentadecathlife",
    "b34e68s245" : "movetub",
    "b34ek5aks2-c34iz5y" : "GlideLife2",
    "b34ek5aks2-c34z" : "GlideLife!GlideLife",
    "b34eknqyzs23" : "ResistantLife",
    "b34eny5es23-a4iy5e6c" : "Bgunlife",
    "b34iqwys23-cq" : "Hats and Shuttles",
    "b34js23" : "quadraticlife",
    "b34jy6ns2-i3" : "replife",
    "b34jys23" : "4life",
    "b34jys2-i3" : "t4life",
    "b34k5e7cs23-a4iyz" : "hassl8life",
    "b34ky5cys23-a4ity6c7" : "104life",
    "b34kz5e7cs23-a4ityz5k" : "Mooselife",
    "b34ns23" : "klife",
    "b34r6s23-q4et" : "High15Life",
    "b34r7s23-q4et" : "Dry15Life",
    "b34rs23-q4et" : "15Life",
    "b34rs23" : "WetLife",
    "b34t5y7s23" : "B-life",
    "b34t6k8s2-i35a7e" : "Train",
    "b34ts2-i35a7e" : "rgun",
    "b34tyz5cys23-a4it5ej" : "57life",
    "b34ws23" : "wlife",
    "b34y5ys234y5y" : "ylife (BokaBB)",
    "b34s2eik3" : "acnelife",
    "b35ces234jqtyz6k8" : "FalseB5",
    "b35cky68s0245-c6n" : "3x3",
    "b35eq7s2-i34q" : "FogLife",
    "b35es2-i34q6c" : "GMO tlife",
    "b35j6as2-i34q" : "guntlife",
    "b35j6is2-i3" : "plife2",
    "b35js2-i3" : "plife",
    "b35kys234y" : "BlinkBlink",
    "b35ns23" : "LifeWithoutGliders",
    "b35y68s245" : "movev",
    "b35ys1e2-ci3-a5i" : "SparseMethuseLife",
    "b35ys23" : "hatlife",
    "b35ys2-n35k6ci" : "38life",
    "b36-es12345" : "Billiard",
    "b36as23" : "testlife",
    "b36is2-i35i" : "PondLife",
    "b36is234j" : "SparkLife",
    "b367s2-i34q" : "SilverLife",
    "b367cs2-i34q" : "ElectrumLife",
    "b368s23cy45-j6n" : "MoveIt",
    "b36-is23" : "EasyHighLife",
    "b36-k7cs2-i34q" : "reptlife",
    "b36ce7cs2-i34q" : "tceclife",
    "b36cs23" : "CapLife",
    "b36ins234cw" : "tosc2",
    "b36is1c23-acek5k6i8" : "FrogLife",
    "b36is23-ce5q" : "ThisLife",
    "b36ns23" : "Ship",
    "b36s12-i4q" : "tHighFlock",
    "b36s2-i34q" : "tHighLife",
    "b37es23" : "PiLife",
    "b37es2-i34y8" : "crawl",
    "b37s12-i4q" : "tDryFlock",
    "b37s2-i34q" : "tDryLife",
    "b38s12-i4q" : "tPedestrianFlock",
    "b38s2-i34q" : "tPedestrianLife",
    "b3-c4c5y8s234qy5y8" : "MilkyLife",
    "b3-cens234eijkrw5cry6ik" : "Cataverters",
    "b3-cer4ceqwz5acek6in78s2-in3-eq4eqwyz5eikn678" : "Blockship",
    "b3-ck4e5k6is2-in35i6c8" : "fakePiShipLife",
    "b3-ckq4zs2-c3-a4iq5k6k" : "ATPP",
    "b3-ckqs2-c34ci" : "Pi-plicator",
    "b3-ckr5ys2-i3-aek4ci5c" : "Harvest Moon",
    "b3-cky4is2-k3-k4i5aen6k" : "StarryNight",
    "b3-cky5aq6ci7cs23-ck4n6k7e" : "DirtyLife",
    "b3-cnqy4jz5ckr6cn7c8s2-i3-ak4einrtyz5-inqy6-kn7c" : "whippy dippy",
    "b3-cnry4-acery5is23-a4-jknqr5y8" : "Scenery",
    "b3-cqy4js2-n34i" : "Immortalife",
    "b3-e4i5is234e" : "HeptaFish",
    "b3-ekqr4nt5r6is02-c3" : "FishLife",
    "b3-er4citys23-a4city" : "Galloping Gliders",
    "b3-ery6ns234yz5i6n8" : "PersistentOscillatorsLife",
    "b3-jkn4as1e2-a3ijnry4n" : "Arrow",
    "b3-jknr4ity5ijk6i8s23-a4city6c7c" : "Glimmering Garden",
    "b3-jn4ews2-i3-a4i" : "Trill",
    "b3-k5rs236n7e" : "Flying Life",
    "b3-knqys2-n3-ey4akwy5aik6kn" : "BoatLife",
    "b3-kq4js23" : "MirrorLife",
    "b3-kq4js2-i34q" : "MirrorTLife",
    "b3-kq4js2-n36c" : "MyrtleLife",
    "b3-ks23" : "xtdbee",
    "b3-ks23-i" : "Ski Life",
    "b3-ks2-i3-k4cen" : "LambdaLife",
    "b3-n45qr6is2eik3" : "WSScentral",
    "b3-n4nt5qr6is23" : "FattyLife",
    "b3-n5js2-i3-a4i" : "Torque",
    "b3-nqr6s235-nqr" : "Puffers",
    "b3-nqr6s235" : "Virus_v2",
    "b3-nqrs23" : "Ribbons",
    "b3-nqy4aqz5cn6n8s2-i3-a4inqz7c8" : "ZombieLife",
    "b3-nrs2-i34-aij" : "TauLife",
    "b3-nr4z5rs23" : "SnakeLife",
    "b3-ns23" : "DLife",
    "b3-ns234iz" : "nonlife",
    "b3-q4ys234z" : "DenseLife",
    "b3-q7cs2-i3-q4q" : "notlife",
    "b3-qs23" : "qlife",
    "b3-ry4ckns2-in3-cjn4it5aiky6-a7e8" : "Hive",
    "b3-r4e5e6-ns23cr457e" : "move_rep",
    "b3-r4z5ys238" : "Pi replicator life",
    "b3-y5crs234w6n" : "SLHassleLife",
    "b3-y7s2-i3-c4kqt" : "Artillery",
    "b3aceiq4es23-a4ciz8" : "Pulse",
    "b3acijks23-a4" : "Movostill 2",
    "b3aeijn4n8s234iqz" : "Breps-2",
    "b3aeijy5e6is2-c3-a4iq5k6ck" : "signalife",
    "b3aeiy4ae5i68s2-in3-kqr4artz5aeny6-e78" : "IceNine",
    "b3ai4-as23" : "Bubbles",
    "b3ai4ekq5cy6ns2-ci3-ace4inr5eqry" : "Forestfire",
    "b3aij4aq5ys2-i3-a4cir6c8" : "Whirlwind",
    "b3aijn4w5nqs2ae3aijr4irz5y" : "Trilobites",
    "b3aijnq6ns2-cn3-ceky4i" : "Wartlife",
    "b3aijs2-i3ajnr4arz56-a7e" : "Rakelife",
    "b3ainqy4aeq5ejn8s2-in3-aek4aciq5ae6-c7c8" : "boatLife",
    "b3e4ejr5cinqy6-ei78s2ei3aejkr4-cny5-e678" : "Ising",
    "b3e4ejr5cinqy6-ei78s012-e3-ajk4-akqw5-ajk6-e78" : "Banks-I",
    "b3s123eik4ce" : "2xpand2",
    "b3s12-i4q" : "tflock",
    "b3s1c2-a35r6i" : "hedgehog",
    "b3s234-acew" : "maze2",
    "b3s234c" : "Conway++",
    "b3s234ce6k" : "hlife",
    "b3s234ce8" : "longlast",
    "b3s234cw7c" : "blockandglider",
    "b3s234et" : "CrossLife",
    "b3s234iw" : "alife",
    "b3s234k" : "MuddyLife",
    "b3s234wz" : "tosc",
    "b3s235i" : "ilife",
    "b3s237c" : "glife",
    "b3s23-ac4eiy6" : "CommonRepl",
    "b3s23-ai4anq6n" : "TableLife",
    "b3s23-cky4k7e8" : "bpuff",
    "b3s23-inqy4aikqtwz" : "Conway+-1",
    "b3s2-ak34aikqtwz5inqy" : "Conway+-2",
    "b3s2-ei3" : "Conway--",
    "b3s2-in34iw" : "hlife3",
    "b3s2-in34nr" : "hlife2",
    "b3s2-i34nq" : "ktlife",
    "b3s2-i34q8" : "tEightLife",
    "b3s2-i34q" : "tlife!tlife",
    "b3s2-k34q" : "zigzag",
    "b3s2ae3aeijr4-cknqy" : "Niemiec's Rule 0",
    "g3b23s" : "Constellations",
    "g3b246s6" : "Brain 6",
    "g3b2s" : "Brian's Brain!Brian's_Brain",
    "g3b34s12" : "Frogs",
    "g3b458s012345" : "Lines",
    "g4b23ceikn467s4568" : "GeneroWires",
    "g4b2s345" : "Star Wars",
    "g4b2s346" : "Fireballs",
    "g4b34578s237" : "9:43 at Knight",
    "g4b3567s2356" : "GeneroLife",
    "g4b378s124567" : "Caterpillars",
    "g5b2s" : "Brain 5",
    "g5b26s345" : "Transers",
    "g5b3457s2367" : "Banners",
    "g6b2s0345" : "Tempest",
    "g6b26s0345" : "Transers 2",
    "g7b25678s345" : "Wallplicators",
    "g7b26s0345" : "Transers 3",
    "g8b23s145678" : "BelZhab Sediment",
    "g8b23s23" : "BelZhab",
    "g8b34s23" : "Swirl",
    "g8b45678s12345" : "Lava",
    "g9b3468s235678" : "BurstII",
    "g9b3468s0235678" : "Burst",
    "g10b2s0345" : "Free Star",
    "g16b257s34578" : "Diamonds And Spaceships",
    "g24b34678s234" : "Bloomerang",
    "g25b24s345" : "Bombers",
    "g64b345678s0125678" : "Tadpoles",
    "g112b2367s35678" : "Planes 2",
    "g256b2367s35678" : "Planes",
    "g3b2-es" : "Simple Brain",
    "g3b2ce3aejnr4aj5y6as1e2-a3-cij4aijkrtz5cnqr" : "Wire-Like World",
    "g3b2e3s234e" : "HTech",
    "g3b3j4-eikq5cs012-e3-ae4acnqyz5acer6acn78" : "Sliders",
    "g3b3r4kr5eiq6ack7es1234-i5anq6kn" : "KST",
    "g4b2c34w5cs2-i34q" : "tGeneC1WC0",
    "g4b2c36k7s2ak34-a5-i" : "Jellyfish",
    "g5b2-k3aei45678s2cn3ei468" : "Corn",
    "g6b3-ae4-q5-ciy7c8s234-ceyz5a8" : "Building Plan",
    "g6b3-e4-q5-cy6as234e8" : "Maximilian",
    "g16b23cky4cekyz5-k6a7s2n345-c6aen7e8" : "Rockets and Replicators",
    "b2s345d0-1-2" : "sraWratS",
    "b34s12d0-1-1" : "sgorF",
    "b378s124567d0-1-2" : "srallipretaC",
    "b2sd" : "DeficientSeeds",
    "b3s23d" : "DeficientLife",
    "r2b4t4s10t19" : "Pigs",
    "r2b7t8s7t10" : "Mini Bugs",
    "r2b7t11s7t10" : "Balloons",
    "r2b8t8s7t11" : "Smudge",
    "r3b14t18s14t23" : "Bugs R3",
    "r3b14t25s15t22" : "Miniature Bugs",
    "r4b23t30s23t39" : "Bugs R4",
    "r4b41t80s41t81" : "Majority",
    "r5b31t42s34t53" : "Bosco Analogue",
    "r5b32t50s41t59" : "Rasta Bugs",
    "r5b33t49s37t59" : "Suicidal Bugs",
    "r5b34t45s34t58" : "Bosco's Rule!Bugs",
    "r5b38t61s29t58" : "Stones",
    "r6b47t61s47t81" : "Quadratic Bugs",
    "r6b47t63s47t81" : "Bugs R6",
    "r6b47t71s47t81" : "Bugs R6 variant",
    "r7b63t84s63t108" : "Bugs R7",
    "r7b65t95s65t114" : "Soldier Bugs",
    "r7b75t170s100t200" : "Waffle",
    "r7b113t224s113t225" : "Majorly",
    "r8b74t252s164t224" : "Globe",
    "r9b101t134s101t173" : "Bugs R9",
    "r10b123t170s123t212" : "Bugsmovie",
    "r10b124t164s124t211" : "Bugs R10",
    "r10b124t166s124t211" : "Bugs R10 variant",
    "r12b175t232s175t300" : "Bugs R12",
    "r13b205t271s205t349" : "Bugs R13",
    "r14b236t313s236t403" : "Bugs R14",
    "r15b270t357s269t461" : "Bugs R15",
    "r20b1t5s1t21" : "Waving human intestines",
    "r100b11100t14996s11303t19361" : "Bugs R100 variant",
    "g6r5b15t25s31t43" : "Fire rule"
    "g6r8b65t100s46t91" : "Fire whirl"
    "g255r10b3t3s2t3" : "ModernArt",
    "r2b555555s555555" : "Replicator R2",
    "r2b555555saaaaaaz" : "Fredkin R2",
    "r3b555555555555s555555555555" : "Replicator R3",
    "r3b555555555555saaaaaaaaaaaaz" : "Fredkin R3",
    "r4b55555555555555555555s55555555555555555555" : "Replicator R4",
    "r4b55555555555555555555saaaaaaaaaaaaaaaaaaaaz" : "Fredkin R4",
    "b135s0246h" : "HexParity",
    "b135s135h" : "Replicator Hex",
    "b25s34h" : "HighHexLife",
    "b2s34h" : "Hexagonal Life",
    "b2o3m56s2-p4oh" : "Hex Life",
    "b2s2-mh" : "22da",
    "b2os2m34h" : "Hexrule b2o",
    "b3os234-o6h" : "HexLife (Saka)",
}
