{
    "image": "https://catagolue.hatsya.com/autogen/nfts/6.gif",
    "external_url": "https://catagolue.hatsya.com/nfts/6",
    "name": "Simkin glider gun",
    "attributes": [
        {
            "display_type": "date",
            "trait_type": "discovery date",
            "value": 1430222400
        },
        {
            "trait_type": "object type",
            "value": "gun"
        },
        {
            "trait_type": "period",
            "value": 120
        },
        {
            "trait_type": "bounding area",
            "value": 759
        }
    ],
    "background_color": "000000",
    "description": "A period-120 glider gun featuring a Herschel looping between two B60 conduits.\n\nDiscovered by Michael Simkin on 2015-04-28.\n\nSee the [LifeWiki page](https://conwaylife.com/wiki/Simkin_glider_gun) and [Catagolue page](https://catagolue.hatsya.com/nfts/6) for further information."
}